Plot. Your. Raw. Data.
…
toronto_shelters %>% 
  filter(file_year %in% c(2017, 2018, 2019)) %>% 
  count(three)

# A tibble: 31 x 2
   three     n
   <chr> <int>
 1 01     3775
 2 02     3796
 3 03     3809
 4 04     3832
 5 05     3832
 6 06     3840
 7 07     3840
 8 08     3798
 9 09     3790
10 10     3778
# … with 21 more rows
…
toronto_shelters %>% 
  filter(file_year == 2020) %>% 
  count(two)

# A tibble: 31 x 2
   two       n
   <chr> <int>
 1 01     1352
 2 02     1352
 3 03     1353
 4 04     1353
 5 05     1346
 6 06     1343
 7 07     1344
 8 08     1344
 9 09     1345
10 10     1345
# … with 21 more rows
…
